{
	"info": {
		"_postman_id": "4a13bcdd-9600-41cd-9501-8473c212be0f",
		"name": "s32-discussion",
		"schema": "https://schema.getpostman.com/json/collection/v2.1.0/collection.json",
		"_exporter_id": "27462524"
	},
	"item": [
		{
			"name": "get items",
			"request": {
				"method": "GET",
				"header": [],
				"url": {
					"raw": "localhost:4000/items",
					"host": [
						"localhost"
					],
					"port": "4000",
					"path": [
						"items"
					]
				}
			},
			"response": []
		},
		{
			"name": "post items",
			"request": {
				"method": "POST",
				"header": [],
				"url": {
					"raw": "localhost:4000/items",
					"host": [
						"localhost"
					],
					"port": "4000",
					"path": [
						"items"
					]
				}
			},
			"response": []
		},
		{
			"name": "get users",
			"request": {
				"method": "GET",
				"header": [],
				"url": {
					"raw": "localhost:4001/users",
					"host": [
						"localhost"
					],
					"port": "4001",
					"path": [
						"users"
					]
				}
			},
			"response": []
		},
		{
			"name": "post users",
			"request": {
				"method": "POST",
				"header": [],
				"url": {
					"raw": "localhost:4001/users",
					"host": [
						"localhost"
					],
					"port": "4001",
					"path": [
						"users"
					]
				}
			},
			"response": []
		}
	]
}